\relax 
\ifx\hyper@anchor\@undefined
\global \let \oldcontentsline\contentsline
\gdef \contentsline#1#2#3#4{\oldcontentsline{#1}{#2}{#3}}
\global \let \oldnewlabel\newlabel
\gdef \newlabel#1#2{\newlabelxx{#1}#2}
\gdef \newlabelxx#1#2#3#4#5#6{\oldnewlabel{#1}{{#2}{#3}}}
\AtEndDocument{\let \contentsline\oldcontentsline
\let \newlabel\oldnewlabel}
\else
\global \let \hyper@last\relax 
\fi

\select@language{english}
\@writefile{toc}{\select@language{english}}
\@writefile{lof}{\select@language{english}}
\@writefile{lot}{\select@language{english}}
\@writefile{toc}{\contentsline {section}{\numberline {1}Introduction}{1}{section.1}}
\@writefile{toc}{\contentsline {section}{\numberline {2}How the solver-module system works}{1}{section.2}}
\@writefile{toc}{\contentsline {section}{\numberline {3}Specifications}{2}{section.3}}
\@writefile{lot}{\contentsline {table}{\numberline {1}{\ignorespaces CPU architecture types and library name modifiers}}{3}{table.1}}
\@writefile{toc}{\contentsline {section}{\numberline {4}Example: how we build the GLPK solver interface}{4}{section.4}}
\@writefile{toc}{\contentsline {section}{\numberline {5}Resources}{4}{section.5}}
